# Blender v2.78 (sub 0) OBJ File: 'cactus.blend'
# www.blender.org
mtllib cactus.mtl
o Cube
v 0.493251 2.066853 0.476480
v 1.874895 3.688089 -0.116205
v -0.000000 2.394907 0.678348
v -1.804149 3.836236 -0.150685
v 0.456282 4.024557 -0.402981
v 0.449016 4.024557 0.402981
v -0.385314 4.024557 0.402981
v -0.385314 4.024557 -0.402981
v 0.000000 2.394908 -0.678348
v -0.485537 2.395766 -0.603845
v 0.510921 2.737419 -0.493549
v -0.485537 2.395766 0.603845
v 0.510921 2.737419 0.493549
v 0.479598 2.396084 0.647049
v -0.510921 2.737419 0.493549
v -0.510921 2.737419 -0.493549
v 0.550037 4.249302 0.000000
v 0.031852 4.249302 -0.493549
v 0.031851 4.249302 0.493549
v -0.479069 4.249302 -0.000000
v 0.000000 2.737419 -0.697983
v -0.730107 2.864732 -0.000000
v -0.000000 2.737419 0.697983
v 0.735918 2.962659 0.000000
v 0.078796 4.531212 0.000000
v 0.479598 2.396084 -0.647049
v 0.438881 0.003488 -0.423958
v 0.438881 0.003488 0.423958
v -0.438881 0.002695 0.423958
v -0.438881 0.002695 -0.423958
v 0.000000 -0.002673 -0.540899
v -0.559938 -0.002674 -0.000000
v -0.000000 -0.002673 0.540899
v 0.559938 -0.002673 0.000000
v -0.493251 2.066658 -0.476480
v 0.493251 2.066853 -0.476480
v -0.493251 2.066658 0.476480
v 0.000000 2.065341 -0.659454
v -0.675207 1.939653 -0.000000
v -0.000000 2.065341 0.659454
v 0.669470 1.842975 0.000000
v 1.619030 2.907066 -0.249534
v 1.538180 3.085253 -0.154551
v 1.648031 2.894980 0.499265
v 1.560301 3.076034 0.416609
v 1.747406 2.736186 0.393984
v 1.595618 3.259089 0.132113
v 1.726050 2.745085 -0.157424
v 1.890235 2.680524 0.111364
v 1.937839 3.711519 0.094559
v 1.826301 3.781744 -0.061870
v 1.853933 3.652950 0.290676
v 1.810312 3.754941 0.248486
v 1.913100 3.570179 0.232404
v 1.843456 3.865270 0.102975
v 1.928536 3.596055 -0.067218
v 2.004578 3.550134 0.084060
v -1.575138 2.862108 -0.552818
v -1.575139 2.862108 0.251448
v -1.471027 3.065121 0.177996
v -1.471027 3.065121 -0.479366
v -1.551446 3.213539 -0.150685
v -1.693712 2.677710 -0.467999
v -1.693712 2.677710 0.166629
v -1.841207 2.668648 -0.150685
v -1.729432 3.791797 -0.361196
v -1.729432 3.791797 0.059826
v -1.674931 3.898072 0.021375
v -1.674931 3.898072 -0.322745
v -1.717029 3.975766 -0.150685
v -1.791503 3.695268 -0.316795
v -1.791503 3.695268 0.015424
v -1.868715 3.690524 -0.150685
vn 0.2080 -0.2664 0.9412
vn -0.4429 0.7704 0.4585
vn 0.9174 0.1019 0.3847
vn -0.3265 0.1172 0.9379
vn -0.9159 0.1419 -0.3754
vn 0.2277 0.1770 -0.9575
vn -0.3265 0.1172 -0.9379
vn 0.3214 0.1018 -0.9415
vn 0.2080 -0.2664 -0.9412
vn -0.4502 -0.8300 -0.3291
vn 0.3612 0.9158 -0.1755
vn -0.9159 0.1419 0.3754
vn -0.2676 0.1168 0.9564
vn 0.2277 0.1770 0.9575
vn 0.3238 0.1026 0.9405
vn -0.2113 0.8991 -0.3834
vn 0.4551 -0.7564 0.4698
vn 0.9208 0.0993 -0.3772
vn 0.4686 0.7337 0.4920
vn 0.4663 0.7368 -0.4896
vn -0.4429 0.7704 -0.4585
vn 0.2848 -0.4209 0.8613
vn 0.9453 -0.0440 0.3233
vn -0.5123 -0.7854 0.3473
vn -0.3063 -0.0434 0.9510
vn -0.2493 -0.2071 -0.9460
vn 0.0887 0.3069 -0.9476
vn -0.2493 -0.2071 0.9460
vn 0.5162 -0.6926 -0.5038
vn -0.2676 0.1168 -0.9564
vn 0.3063 -0.0434 -0.9509
vn -0.3063 -0.0434 -0.9510
vn -0.9449 -0.0443 0.3245
vn -0.9449 -0.0443 -0.3245
vn 0.9453 -0.0440 -0.3233
vn 0.3063 -0.0434 0.9509
vn 0.7149 -0.0043 0.6993
vn -0.9217 0.3824 -0.0657
vn 0.6030 -0.0604 -0.7954
vn 0.8441 -0.1365 -0.5186
vn 0.4251 -0.3434 -0.8375
vn -0.0608 0.4057 0.9120
vn 0.1289 0.4379 -0.8898
vn -0.3037 0.8817 0.3611
vn 0.7419 0.4643 0.4837
vn 0.7833 0.5336 -0.3190
vn 0.8754 0.3683 -0.3132
vn 0.8356 0.3016 0.4592
vn -0.4075 0.2829 -0.8683
vn 0.8685 -0.0887 0.4877
vn -0.9213 0.3735 0.1082
vn -0.2122 0.3103 0.9267
vn 0.2175 0.2315 -0.9482
vn 0.9673 0.2101 -0.1418
vn -0.9063 -0.0244 0.4220
vn 0.2175 0.2315 0.9482
vn -0.1711 0.3371 0.9258
vn 0.3008 0.9319 0.2029
vn -0.3828 -0.2708 0.8832
vn -0.1825 -0.3368 -0.9237
vn -0.7678 0.5042 -0.3954
vn -0.7678 0.5042 0.3954
vn -0.8463 0.3726 -0.3807
vn -0.8463 0.3726 0.3807
vn -0.9063 -0.0244 -0.4220
vn -0.6347 0.0536 0.7709
vn -0.6347 0.0536 -0.7709
vn 0.9673 0.2101 0.1418
usemtl Material
s off
f 1//1 14//1 3//1 40//1
f 25//2 20//2 7//2 19//2
f 24//3 17//3 6//3 13//3
f 23//4 19//4 7//4 15//4
f 22//5 20//5 8//5 16//5
f 11//6 26//6 9//6 21//6
f 18//7 21//7 16//7 8//7
f 5//8 11//8 21//8 18//8
f 26//9 36//9 38//9 9//9
f 35//10 39//10 65//10 63//10
f 22//11 16//11 61//11 62//11
f 15//12 7//12 20//12 22//12
f 3//13 23//13 15//13 12//13
f 14//14 13//14 23//14 3//14
f 13//15 6//15 19//15 23//15
f 11//16 24//16 47//16 43//16
f 1//17 41//17 49//17 46//17
f 11//18 5//18 17//18 24//18
f 17//19 25//19 19//19 6//19
f 5//20 18//20 25//20 17//20
f 18//21 8//21 20//21 25//21
f 14//22 1//22 46//22 44//22
f 34//23 41//23 1//23 28//23
f 39//24 37//24 64//24 65//24
f 33//25 40//25 37//25 29//25
f 9//26 38//26 35//26 10//26
f 16//27 10//27 58//27 61//27
f 40//28 3//28 12//28 37//28
f 41//29 36//29 48//29 49//29
f 21//30 9//30 10//30 16//30
f 36//31 27//31 31//31 38//31
f 38//32 31//32 30//32 35//32
f 29//33 37//33 39//33 32//33
f 32//34 39//34 35//34 30//34
f 27//35 36//35 41//35 34//35
f 28//36 1//36 40//36 33//36
f 44//37 46//37 54//37 52//37
f 43//38 47//38 55//38 51//38
f 48//39 42//39 2//39 56//39
f 49//40 48//40 56//40 57//40
f 36//41 26//41 42//41 48//41
f 13//42 14//42 44//42 45//42
f 26//43 11//43 43//43 42//43
f 24//44 13//44 45//44 47//44
f 50//45 55//45 53//45 52//45
f 2//46 51//46 55//46 50//46
f 56//47 2//47 50//47 57//47
f 57//48 50//48 52//48 54//48
f 42//49 43//49 51//49 2//49
f 46//50 49//50 57//50 54//50
f 47//51 45//51 53//51 55//51
f 45//52 44//52 52//52 53//52
f 61//53 58//53 66//53 69//53
f 60//54 62//54 70//54 68//54
f 65//55 64//55 72//55 73//55
f 59//56 60//56 68//56 67//56
f 12//57 15//57 60//57 59//57
f 15//58 22//58 62//58 60//58
f 37//59 12//59 59//59 64//59
f 10//60 35//60 63//60 58//60
f 4//61 70//61 69//61 66//61
f 67//62 68//62 70//62 4//62
f 73//63 4//63 66//63 71//63
f 72//64 67//64 4//64 73//64
f 63//65 65//65 73//65 71//65
f 64//66 59//66 67//66 72//66
f 58//67 63//67 71//67 66//67
f 62//68 61//68 69//68 70//68
